{
  "version": 1,
  "width": 102,
  "height": 51,
  "duration": 417.118639,
  "command": "/bin/bash",
  "title": "",
  "env": {
    "TERM": "xterm",
    "SHELL": "/bin/bash"
  },
  "stdout": [
    [
      0.066737,
      "λ "
    ],
    [
      0.647604,
      "p"
    ],
    [
      0.340995,
      "y"
    ],
    [
      0.042970,
      "t"
    ],
    [
      0.115392,
      "h"
    ],
    [
      0.165503,
      "o"
    ],
    [
      0.135530,
      "n"
    ],
    [
      0.566429,
      "\r\n"
    ],
    [
      0.014855,
      "Python 2.7.6 (default, Jun 22 2015, 17:58:13) \r\n[GCC 4.8.2] on linux2\r\nType \"help\", \"copyright\", \"credits\" or \"license\" for more information.\r\n"
    ],
    [
      0.000589,
      "\u003e\u003e\u003e "
    ],
    [
      0.703500,
      "#"
    ],
    [
      0.466944,
      " "
    ],
    [
      0.160448,
      "W"
    ],
    [
      0.235781,
      "e"
    ],
    [
      0.155602,
      " "
    ],
    [
      0.350995,
      "o"
    ],
    [
      0.238597,
      "f"
    ],
    [
      0.258097,
      "t"
    ],
    [
      0.249592,
      "e"
    ],
    [
      0.164473,
      "n"
    ],
    [
      0.220607,
      " "
    ],
    [
      0.255757,
      "n"
    ],
    [
      0.125535,
      "e"
    ],
    [
      0.195628,
      "e"
    ],
    [
      0.609002,
      "d"
    ],
    [
      0.100392,
      " "
    ],
    [
      0.198339,
      "t"
    ],
    [
      0.180688,
      "o"
    ],
    [
      0.050204,
      " "
    ],
    [
      0.140414,
      "c"
    ],
    [
      0.311016,
      "o"
    ],
    [
      0.195817,
      "m"
    ],
    [
      0.135359,
      "p"
    ],
    [
      0.321030,
      "u"
    ],
    [
      0.286010,
      "t"
    ],
    [
      0.060295,
      "e"
    ],
    [
      0.907875,
      " "
    ],
    [
      0.207794,
      "f"
    ],
    [
      0.100606,
      "u"
    ],
    [
      0.162966,
      "n"
    ],
    [
      0.055136,
      "c"
    ],
    [
      0.165640,
      "t"
    ],
    [
      0.165561,
      "i"
    ],
    [
      0.030164,
      "o"
    ],
    [
      0.200502,
      "n"
    ],
    [
      0.122750,
      " "
    ],
    [
      0.228382,
      "d"
    ],
    [
      0.065238,
      "e"
    ],
    [
      0.140488,
      "r"
    ],
    [
      0.160533,
      "i"
    ],
    [
      0.225659,
      "v"
    ],
    [
      0.120471,
      "a"
    ],
    [
      0.095334,
      "t"
    ],
    [
      0.215873,
      "u"
    ],
    [
      0.195579,
      "v"
    ],
    [
      0.115243,
      "e"
    ],
    [
      0.306176,
      "\u0008\u001b[K"
    ],
    [
      0.095310,
      "\u0008\u001b[K"
    ],
    [
      0.100332,
      "\u0008\u001b[K"
    ],
    [
      0.516697,
      "i"
    ],
    [
      0.235554,
      "v"
    ],
    [
      0.070326,
      "e"
    ],
    [
      0.140345,
      "s"
    ],
    [
      1.314016,
      ","
    ],
    [
      0.273158,
      "\r\n"
    ],
    [
      0.000093,
      "... "
    ],
    [
      0.531283,
      "#"
    ],
    [
      0.740205,
      " "
    ],
    [
      0.441382,
      "b"
    ],
    [
      0.230800,
      "u"
    ],
    [
      0.280914,
      "t"
    ],
    [
      0.105475,
      " "
    ],
    [
      0.365955,
      "m"
    ],
    [
      0.075255,
      "o"
    ],
    [
      0.137778,
      "s"
    ],
    [
      0.128160,
      "t"
    ],
    [
      0.050208,
      " "
    ],
    [
      0.195565,
      "o"
    ],
    [
      0.065208,
      "f"
    ],
    [
      0.050193,
      " "
    ],
    [
      0.190631,
      "t"
    ],
    [
      0.030062,
      "h"
    ],
    [
      0.092933,
      "e"
    ],
    [
      0.037508,
      " "
    ],
    [
      0.581846,
      "t"
    ],
    [
      0.115361,
      "i"
    ],
    [
      0.155567,
      "m"
    ],
    [
      0.115239,
      "e"
    ],
    [
      0.599185,
      ","
    ],
    [
      0.077853,
      " "
    ],
    [
      0.090179,
      "w"
    ],
    [
      0.170615,
      "e"
    ],
    [
      0.215878,
      " "
    ],
    [
      0.275806,
      "c"
    ],
    [
      0.250800,
      "a"
    ],
    [
      0.230709,
      "n"
    ],
    [
      0.165566,
      "n"
    ],
    [
      0.481229,
      "o"
    ],
    [
      0.271000,
      "t"
    ],
    [
      0.040016,
      " "
    ],
    [
      0.195722,
      "p"
    ],
    [
      0.065127,
      "e"
    ],
    [
      0.150409,
      "r"
    ],
    [
      0.175694,
      "f"
    ],
    [
      0.235692,
      "o"
    ],
    [
      0.055082,
      "r"
    ],
    [
      0.162892,
      "m"
    ],
    [
      0.995596,
      " "
    ],
    [
      0.140491,
      "s"
    ],
    [
      0.220743,
      "y"
    ],
    [
      0.185536,
      "m"
    ],
    [
      0.210872,
      "b"
    ],
    [
      2.131136,
      "o"
    ],
    [
      0.135355,
      "l"
    ],
    [
      0.141731,
      "i"
    ],
    [
      0.199446,
      "c"
    ],
    [
      0.175528,
      " "
    ],
    [
      0.401293,
      "c"
    ],
    [
      0.135503,
      "o"
    ],
    [
      0.180457,
      "m"
    ],
    [
      0.100367,
      "p"
    ],
    [
      0.280900,
      "u"
    ],
    [
      0.220225,
      "t"
    ],
    [
      0.070674,
      "a"
    ],
    [
      0.060368,
      "t"
    ],
    [
      0.596749,
      "o"
    ],
    [
      0.025079,
      "i"
    ],
    [
      0.486558,
      "\u0008\u001b[K"
    ],
    [
      0.127692,
      "\u0008\u001b[K"
    ],
    [
      0.308690,
      "i"
    ],
    [
      0.034022,
      "o"
    ],
    [
      0.216793,
      "n"
    ],
    [
      0.812270,
      "s"
    ],
    [
      0.952922,
      ";"
    ],
    [
      0.829564,
      "\r\n"
    ],
    [
      0.000065,
      "... "
    ],
    [
      1.027791,
      "#"
    ],
    [
      0.869973,
      " "
    ],
    [
      0.141123,
      "w"
    ],
    [
      0.205801,
      "e"
    ],
    [
      0.150517,
      " "
    ],
    [
      0.270826,
      "r"
    ],
    [
      0.055307,
      "e"
    ],
    [
      0.651912,
      "l"
    ],
    [
      0.315968,
      "y"
    ],
    [
      0.077668,
      " "
    ],
    [
      0.153104,
      "o"
    ],
    [
      0.195659,
      "n"
    ],
    [
      0.064520,
      " "
    ],
    [
      0.607273,
      "n"
    ],
    [
      0.175819,
      "u"
    ],
    [
      0.150473,
      "m"
    ],
    [
      0.115498,
      "e"
    ],
    [
      0.205585,
      "t"
    ],
    [
      0.501593,
      "\u0008\u001b[K"
    ],
    [
      0.137703,
      "r"
    ],
    [
      0.153191,
      "i"
    ],
    [
      0.115412,
      "c"
    ],
    [
      0.225696,
      "a"
    ],
    [
      0.581780,
      "l"
    ],
    [
      0.180592,
      " "
    ],
    [
      0.125351,
      "d"
    ],
    [
      0.122739,
      "i"
    ],
    [
      0.208349,
      "f"
    ],
    [
      0.140515,
      "f"
    ],
    [
      0.105483,
      "e"
    ],
    [
      0.566594,
      "r"
    ],
    [
      0.160447,
      "e"
    ],
    [
      0.170651,
      "n"
    ],
    [
      0.225653,
      "t"
    ],
    [
      0.576707,
      "i"
    ],
    [
      0.085275,
      "a"
    ],
    [
      0.130361,
      "t"
    ],
    [
      0.170511,
      "i"
    ],
    [
      0.034526,
      "o"
    ],
    [
      0.171164,
      "n"
    ],
    [
      0.039481,
      " "
    ],
    [
      0.206349,
      "i"
    ],
    [
      0.190599,
      "n"
    ],
    [
      0.636814,
      "s"
    ],
    [
      0.230810,
      "t"
    ],
    [
      0.055194,
      "e"
    ],
    [
      0.070351,
      "a"
    ],
    [
      0.140372,
      "d"
    ],
    [
      0.626935,
      "."
    ],
    [
      0.812393,
      "\r\n"
    ],
    [
      0.000174,
      "... "
    ],
    [
      1.148028,
      "\r\n"
    ],
    [
      0.000317,
      "\u003e\u003e\u003e "
    ],
    [
      1.165506,
      "#"
    ],
    [
      0.195838,
      " "
    ],
    [
      0.566748,
      "F"
    ],
    [
      0.183413,
      "o"
    ],
    [
      0.707116,
      "r"
    ],
    [
      0.195589,
      " "
    ],
    [
      0.095477,
      "e"
    ],
    [
      0.210486,
      "x"
    ],
    [
      0.195567,
      "a"
    ],
    [
      0.154813,
      "m"
    ],
    [
      0.150475,
      "p"
    ],
    [
      0.156343,
      "l"
    ],
    [
      0.100303,
      "e"
    ],
    [
      0.195546,
      ","
    ],
    [
      0.080357,
      " "
    ],
    [
      0.260702,
      "w"
    ],
    [
      0.240774,
      "e"
    ],
    [
      0.160568,
      " "
    ],
    [
      0.180603,
      "u"
    ],
    [
      0.070098,
      "s"
    ],
    [
      0.150465,
      "e"
    ],
    [
      0.110616,
      " "
    ],
    [
      0.090225,
      "a"
    ],
    [
      0.100164,
      " "
    ],
    [
      0.707081,
      "F"
    ],
    [
      0.115391,
      "o"
    ],
    [
      0.080081,
      "r"
    ],
    [
      0.386335,
      "w"
    ],
    [
      0.075182,
      "a"
    ],
    [
      0.140411,
      "r"
    ],
    [
      0.145518,
      "d"
    ],
    [
      0.095283,
      " "
    ],
    [
      0.466302,
      "D"
    ],
    [
      0.185651,
      "i"
    ],
    [
      0.817271,
      "f"
    ],
    [
      0.614161,
      "f"
    ],
    [
      0.158344,
      "e"
    ],
    [
      0.120288,
      "r"
    ],
    [
      0.416279,
      "e"
    ],
    [
      0.125404,
      "n"
    ],
    [
      0.205656,
      "c"
    ],
    [
      0.050240,
      "e"
    ],
    [
      0.155427,
      " "
    ],
    [
      0.441201,
      "s"
    ],
    [
      0.150489,
      "c"
    ],
    [
      0.210590,
      "h"
    ],
    [
      0.085357,
      "e"
    ],
    [
      0.205572,
      "e"
    ],
    [
      0.516568,
      "\u0008\u001b[K"
    ],
    [
      0.245634,
      "m"
    ],
    [
      0.045253,
      "e"
    ],
    [
      0.361065,
      ":"
    ],
    [
      0.947755,
      "\r\n"
    ],
    [
      0.000118,
      "... "
    ],
    [
      0.486500,
      "d"
    ],
    [
      0.040011,
      "e"
    ],
    [
      0.135360,
      "f"
    ],
    [
      0.185767,
      " "
    ],
    [
      0.365998,
      "F"
    ],
    [
      0.838568,
      "D"
    ],
    [
      0.285929,
      "("
    ],
    [
      0.907654,
      "f"
    ],
    [
      0.300907,
      ","
    ],
    [
      0.090333,
      " "
    ],
    [
      0.336079,
      ","
    ],
    [
      0.055124,
      " "
    ],
    [
      0.386125,
      "\u0008\u001b[K"
    ],
    [
      0.185665,
      "\u0008\u001b[K"
    ],
    [
      0.346088,
      "x"
    ],
    [
      0.616730,
      ","
    ],
    [
      0.059591,
      " "
    ],
    [
      0.176151,
      "h"
    ],
    [
      0.416308,
      ")"
    ],
    [
      0.235766,
      ":"
    ],
    [
      0.230672,
      "\r\n"
    ],
    [
      0.000136,
      "... "
    ],
    [
      1.133214,
      " "
    ],
    [
      0.230734,
      " "
    ],
    [
      0.210802,
      " "
    ],
    [
      0.220476,
      " "
    ],
    [
      0.280942,
      "\""
    ],
    [
      0.170500,
      "\""
    ],
    [
      0.908171,
      "\u0008"
    ],
    [
      0.325377,
      "F\"\u0008"
    ],
    [
      0.544164,
      "o\"\u0008"
    ],
    [
      0.348764,
      "r\"\u0008"
    ],
    [
      0.180365,
      "w\"\u0008"
    ],
    [
      0.072639,
      "a\"\u0008"
    ],
    [
      0.248470,
      "r\"\u0008"
    ],
    [
      0.195496,
      "d\"\u0008"
    ],
    [
      0.596797,
      " \"\u0008"
    ],
    [
      0.376187,
      "D\"\u0008"
    ],
    [
      0.541568,
      "i\"\u0008"
    ],
    [
      0.235585,
      "f\"\u0008"
    ],
    [
      0.120457,
      "f\"\u0008"
    ],
    [
      0.080328,
      "e\"\u0008"
    ],
    [
      0.115341,
      "r\"\u0008"
    ],
    [
      0.050205,
      "e\"\u0008"
    ],
    [
      0.210523,
      "n\"\u0008"
    ],
    [
      0.095510,
      "c\"\u0008"
    ],
    [
      0.045076,
      "e\"\u0008"
    ],
    [
      0.591718,
      " \"\u0008"
    ],
    [
      0.070389,
      "a\"\u0008"
    ],
    [
      0.178975,
      "p\"\u0008"
    ],
    [
      0.136875,
      "r\"\u0008"
    ],
    [
      0.491447,
      "\u0008\u001b[1P\"\u0008"
    ],
    [
      0.175581,
      "p\"\u0008"
    ],
    [
      0.075366,
      "r\"\u0008"
    ],
    [
      0.110263,
      "o\"\u0008"
    ],
    [
      0.581574,
      "i\"\u0008"
    ],
    [
      0.371103,
      "\u0008\u001b[1P\"\u0008"
    ],
    [
      0.245780,
      "x\"\u0008"
    ],
    [
      0.150418,
      "i\"\u0008"
    ],
    [
      0.085309,
      "m\"\u0008"
    ],
    [
      0.095317,
      "a\"\u0008"
    ],
    [
      0.150509,
      "t\"\u0008"
    ],
    [
      0.170623,
      "i\"\u0008"
    ],
    [
      0.030023,
      "o\"\u0008"
    ],
    [
      0.135355,
      "n\"\u0008"
    ],
    [
      0.034911,
      " \"\u0008"
    ],
    [
      0.170909,
      "o\"\u0008"
    ],
    [
      0.057452,
      "f\"\u0008"
    ],
    [
      0.107891,
      " \"\u0008"
    ],
    [
      0.401264,
      "f\"\u0008"
    ],
    [
      0.200629,
      "'\"\u0008"
    ],
    [
      0.305969,
      "(\"\u0008"
    ],
    [
      0.320992,
      "x\"\u0008"
    ],
    [
      0.350845,
      ")\"\u0008"
    ],
    [
      0.903001,
      "\u001b[C"
    ],
    [
      0.260409,
      "\r\n"
    ],
    [
      0.000198,
      "... "
    ],
    [
      0.431135,
      " "
    ],
    [
      0.120437,
      " "
    ],
    [
      0.165642,
      " "
    ],
    [
      0.170426,
      " "
    ],
    [
      0.366091,
      "r"
    ],
    [
      0.060202,
      "e"
    ],
    [
      0.310966,
      "u"
    ],
    [
      0.070377,
      "r"
    ],
    [
      0.295786,
      "\u0008\u001b[K"
    ],
    [
      0.120507,
      "\u0008\u001b[K"
    ],
    [
      0.290808,
      "t"
    ],
    [
      0.190534,
      "u"
    ],
    [
      0.045302,
      "r"
    ],
    [
      0.140483,
      "n"
    ],
    [
      0.040127,
      " "
    ],
    [
      0.476292,
      "("
    ],
    [
      0.606804,
      "f"
    ],
    [
      0.677197,
      "("
    ],
    [
      0.140451,
      "x"
    ],
    [
      0.436115,
      "+"
    ],
    [
      0.306094,
      "h"
    ],
    [
      0.341058,
      ")"
    ],
    [
      0.190612,
      " "
    ],
    [
      0.205706,
      "-"
    ],
    [
      0.040044,
      " "
    ],
    [
      0.195483,
      "d"
    ],
    [
      0.661941,
      "\u0008\u001b[K"
    ],
    [
      0.285903,
      "f"
    ],
    [
      0.140424,
      "("
    ],
    [
      0.421307,
      "x"
    ],
    [
      0.421332,
      ")"
    ],
    [
      0.150615,
      ")"
    ],
    [
      0.601620,
      " "
    ],
    [
      0.200691,
      "/"
    ],
    [
      0.210560,
      " "
    ],
    [
      0.306083,
      "h"
    ],
    [
      1.223522,
      "\r\n"
    ],
    [
      0.000224,
      "... "
    ],
    [
      0.869387,
      "#"
    ],
    [
      0.321274,
      " "
    ],
    [
      0.228361,
      "T"
    ],
    [
      0.145505,
      "h"
    ],
    [
      0.075344,
      "e"
    ],
    [
      0.100308,
      " "
    ],
    [
      0.110276,
      "n"
    ],
    [
      0.195681,
      "u"
    ],
    [
      0.140466,
      "m"
    ],
    [
      0.185541,
      "b"
    ],
    [
      0.100276,
      "e"
    ],
    [
      0.125482,
      "r"
    ],
    [
      0.085411,
      " "
    ],
    [
      1.143206,
      "h"
    ],
    [
      0.060214,
      " "
    ],
    [
      0.165545,
      "i"
    ],
    [
      0.060168,
      "s"
    ],
    [
      0.120595,
      " "
    ],
    [
      0.150329,
      "t"
    ],
    [
      0.055369,
      "h"
    ],
    [
      0.030198,
      "e"
    ],
    [
      0.080221,
      " "
    ],
    [
      0.285567,
      "s"
    ],
    [
      0.135625,
      "t"
    ],
    [
      0.065174,
      "e"
    ],
    [
      0.160640,
      "p"
    ],
    [
      0.195577,
      " "
    ],
    [
      0.546662,
      "s"
    ],
    [
      0.336000,
      "i"
    ],
    [
      0.160364,
      "z"
    ],
    [
      0.055168,
      "e"
    ],
    [
      0.311121,
      " "
    ],
    [
      0.937809,
      "\u0008\u001b[K"
    ],
    [
      0.350996,
      ","
    ],
    [
      0.055065,
      " "
    ],
    [
      0.199268,
      "t"
    ],
    [
      0.065214,
      "h"
    ],
    [
      0.020169,
      "e"
    ],
    [
      0.162010,
      " "
    ],
    [
      0.320847,
      "s"
    ],
    [
      0.155616,
      "m"
    ],
    [
      0.080323,
      "a"
    ],
    [
      0.165532,
      "l"
    ],
    [
      0.135367,
      "l"
    ],
    [
      0.115430,
      "e"
    ],
    [
      0.135369,
      "r"
    ],
    [
      0.326052,
      " "
    ],
    [
      0.847539,
      "t"
    ],
    [
      0.039999,
      "h"
    ],
    [
      0.065196,
      "e"
    ],
    [
      0.611730,
      " "
    ],
    [
      0.160729,
      "b"
    ],
    [
      0.090320,
      "e"
    ],
    [
      0.115452,
      "t"
    ],
    [
      0.120225,
      "t"
    ],
    [
      0.095463,
      "e"
    ],
    [
      0.080271,
      "r"
    ],
    [
      0.135280,
      " "
    ],
    [
      0.115424,
      "("
    ],
    [
      0.331122,
      "i"
    ],
    [
      0.280848,
      "n"
    ],
    [
      0.110339,
      " "
    ],
    [
      0.210825,
      "t"
    ],
    [
      0.037033,
      "h"
    ],
    [
      0.088135,
      "e"
    ],
    [
      0.541768,
      "o"
    ],
    [
      0.085140,
      "r"
    ],
    [
      0.200692,
      "y"
    ],
    [
      0.280856,
      " "
    ],
    [
      0.225712,
      "."
    ],
    [
      0.220840,
      "."
    ],
    [
      0.140273,
      "."
    ],
    [
      0.541811,
      ")"
    ],
    [
      1.253639,
      "\r\n"
    ],
    [
      0.000105,
      "... "
    ],
    [
      0.381015,
      "\r\n"
    ],
    [
      0.000306,
      "\u003e\u003e\u003e "
    ],
    [
      1.393227,
      "#"
    ],
    [
      0.216464,
      " "
    ],
    [
      0.240782,
      "T"
    ],
    [
      0.170452,
      "o"
    ],
    [
      0.050085,
      " "
    ],
    [
      0.260888,
      "s"
    ],
    [
      0.656963,
      "u"
    ],
    [
      0.130521,
      "d"
    ],
    [
      0.867473,
      "\u0008\u001b[K"
    ],
    [
      0.105486,
      "\u0008\u001b[K"
    ],
    [
      0.245606,
      "t"
    ],
    [
      0.511651,
      "u"
    ],
    [
      0.807404,
      "d"
    ],
    [
      0.285900,
      "y"
    ],
    [
      0.220764,
      " "
    ],
    [
      0.230749,
      "t"
    ],
    [
      0.049653,
      "h"
    ],
    [
      0.050626,
      "e"
    ],
    [
      0.095314,
      " "
    ],
    [
      0.110507,
      "a"
    ],
    [
      0.235541,
      "c"
    ],
    [
      0.140432,
      "c"
    ],
    [
      0.225697,
      "u"
    ],
    [
      0.235735,
      "r"
    ],
    [
      0.927634,
      "a"
    ],
    [
      0.807538,
      "c"
    ],
    [
      0.662050,
      "y"
    ],
    [
      0.160483,
      " "
    ],
    [
      0.180551,
      "o"
    ],
    [
      0.075316,
      "f"
    ],
    [
      0.115375,
      " "
    ],
    [
      0.330924,
      "t"
    ],
    [
      0.025069,
      "h"
    ],
    [
      0.150631,
      " "
    ],
    [
      0.381031,
      "\u0008\u001b[K"
    ],
    [
      0.215709,
      "i"
    ],
    [
      0.095205,
      "s"
    ],
    [
      0.125469,
      " "
    ],
    [
      0.140427,
      "s"
    ],
    [
      0.140525,
      "c"
    ],
    [
      0.217898,
      "h"
    ],
    [
      0.057958,
      "e"
    ],
    [
      0.546557,
      "m"
    ],
    [
      0.105573,
      "e"
    ],
    [
      0.486291,
      ","
    ],
    [
      0.060206,
      " "
    ],
    [
      0.130566,
      "w"
    ],
    [
      0.210534,
      "e"
    ],
    [
      0.125391,
      " "
    ],
    [
      0.200608,
      "u"
    ],
    [
      0.050118,
      "s"
    ],
    [
      0.175601,
      "e"
    ],
    [
      0.408206,
      " "
    ],
    [
      0.795398,
      "f"
    ],
    [
      0.205688,
      "="
    ],
    [
      0.125454,
      "e"
    ],
    [
      0.227934,
      "x"
    ],
    [
      0.474126,
      "p"
    ],
    [
      0.277231,
      " "
    ],
    [
      0.083896,
      "a"
    ],
    [
      0.115443,
      "n"
    ],
    [
      0.110420,
      "d"
    ],
    [
      0.090175,
      " "
    ],
    [
      0.253096,
      "x"
    ],
    [
      0.350002,
      "="
    ],
    [
      0.309961,
      "0"
    ],
    [
      1.253687,
      ","
    ],
    [
      0.280831,
      "\r\n"
    ],
    [
      0.000170,
      "... "
    ],
    [
      0.554100,
      "#"
    ],
    [
      0.408648,
      " "
    ],
    [
      0.301061,
      "b"
    ],
    [
      0.085194,
      "e"
    ],
    [
      0.150465,
      "c"
    ],
    [
      0.601838,
      "a"
    ],
    [
      0.280809,
      "u"
    ],
    [
      0.060144,
      "s"
    ],
    [
      0.130465,
      "e"
    ],
    [
      0.125615,
      " "
    ],
    [
      0.150326,
      "w"
    ],
    [
      0.205747,
      "e"
    ],
    [
      0.140469,
      " "
    ],
    [
      0.691924,
      "k"
    ],
    [
      0.200581,
      "n"
    ],
    [
      0.185845,
      "o"
    ],
    [
      0.054974,
      "w"
    ],
    [
      0.110409,
      " "
    ],
    [
      0.187801,
      "t"
    ],
    [
      0.052148,
      "h"
    ],
    [
      0.086034,
      "a"
    ],
    [
      0.080328,
      "t"
    ],
    [
      1.649721,
      " "
    ],
    [
      0.215679,
      "t"
    ],
    [
      0.034943,
      "h"
    ],
    [
      0.040315,
      "e"
    ],
    [
      0.125600,
      " "
    ],
    [
      0.065031,
      "e"
    ],
    [
      1.268627,
      "x"
    ],
    [
      0.571763,
      "a"
    ],
    [
      0.265824,
      "c"
    ],
    [
      0.170531,
      "t"
    ],
    [
      0.087628,
      " "
    ],
    [
      0.193344,
      "r"
    ],
    [
      0.095335,
      "e"
    ],
    [
      0.471491,
      "s"
    ],
    [
      0.135321,
      "u"
    ],
    [
      0.065329,
      "l"
    ],
    [
      0.185425,
      "t"
    ],
    [
      0.351218,
      " "
    ],
    [
      0.782256,
      "i"
    ],
    [
      0.050198,
      "f"
    ],
    [
      0.105375,
      " "
    ],
    [
      0.366208,
      "f"
    ],
    [
      0.245669,
      "'"
    ],
    [
      0.802459,
      "("
    ],
    [
      0.090191,
      "x"
    ],
    [
      0.596780,
      ")"
    ],
    [
      0.321350,
      " "
    ],
    [
      0.661612,
      "="
    ],
    [
      0.170507,
      " "
    ],
    [
      0.531801,
      "."
    ],
    [
      0.400877,
      "\u0008\u001b[K"
    ],
    [
      0.185761,
      "1"
    ],
    [
      0.295951,
      "."
    ],
    [
      0.255824,
      "0"
    ],
    [
      1.218569,
      "."
    ],
    [
      1.078126,
      "\r\n"
    ],
    [
      0.000154,
      "... "
    ],
    [
      0.611536,
      "f"
    ],
    [
      0.062363,
      "r"
    ],
    [
      0.058164,
      "o"
    ],
    [
      0.042301,
      "m"
    ],
    [
      0.088130,
      " "
    ],
    [
      0.340975,
      "n"
    ],
    [
      0.155343,
      "u"
    ],
    [
      0.225801,
      "m"
    ],
    [
      0.145335,
      "p"
    ],
    [
      0.366131,
      "y"
    ],
    [
      0.115377,
      " "
    ],
    [
      0.576771,
      "i"
    ],
    [
      0.197606,
      "m"
    ],
    [
      0.155691,
      "p"
    ],
    [
      0.055169,
      "o"
    ],
    [
      0.346041,
      "r"
    ],
    [
      0.030273,
      "t"
    ],
    [
      0.148050,
      " "
    ],
    [
      0.100324,
      "e"
    ],
    [
      0.170698,
      "x"
    ],
    [
      0.092631,
      "p"
    ],
    [
      0.368752,
      " "
    ],
    [
      0.132839,
      "a"
    ],
    [
      0.022807,
      "s"
    ],
    [
      0.120458,
      " "
    ],
    [
      0.406197,
      "f"
    ],
    [
      0.305869,
      "\r\n"
    ],
    [
      0.048108,
      "\u003e\u003e\u003e "
    ],
    [
      1.270849,
      "x"
    ],
    [
      0.333346,
      " "
    ],
    [
      0.087973,
      "="
    ],
    [
      0.090381,
      " "
    ],
    [
      0.724368,
      "0"
    ],
    [
      0.669872,
      "\r\n"
    ],
    [
      0.000257,
      "\u003e\u003e\u003e "
    ],
    [
      0.381163,
      "\r\n"
    ],
    [
      0.000196,
      "\u003e\u003e\u003e "
    ],
    [
      1.383884,
      "F"
    ],
    [
      0.135573,
      "D"
    ],
    [
      0.762326,
      "("
    ],
    [
      0.767416,
      "f"
    ],
    [
      0.205591,
      ","
    ],
    [
      0.085347,
      " "
    ],
    [
      0.130376,
      "x"
    ],
    [
      1.940913,
      ","
    ],
    [
      0.070377,
      " "
    ],
    [
      0.506338,
      "h"
    ],
    [
      0.290884,
      "="
    ],
    [
      0.280996,
      "1"
    ],
    [
      0.386090,
      "e"
    ],
    [
      0.441324,
      "-"
    ],
    [
      0.275855,
      "4"
    ],
    [
      0.717289,
      ")"
    ],
    [
      1.940679,
      "\r\n"
    ],
    [
      0.000390,
      "1.000050001667141\r\n"
    ],
    [
      0.000017,
      "\u003e\u003e\u003e "
    ],
    [
      1.215263,
      "#"
    ],
    [
      0.301331,
      " "
    ],
    [
      0.208440,
      "T"
    ],
    [
      0.145413,
      "h"
    ],
    [
      0.160391,
      "i"
    ],
    [
      0.050214,
      "s"
    ],
    [
      0.115339,
      " "
    ],
    [
      0.172797,
      "i"
    ],
    [
      0.037723,
      "s"
    ],
    [
      0.110686,
      " "
    ],
    [
      0.155303,
      "n"
    ],
    [
      0.145535,
      "o"
    ],
    [
      0.200617,
      "t"
    ],
    [
      0.065181,
      " "
    ],
    [
      0.867520,
      "b"
    ],
    [
      0.110365,
      "a"
    ],
    [
      1.163383,
      "d"
    ],
    [
      0.135583,
      ","
    ],
    [
      0.065301,
      " "
    ],
    [
      0.190554,
      "t"
    ],
    [
      0.062590,
      "h"
    ],
    [
      0.028610,
      "e"
    ],
    [
      0.164659,
      " "
    ],
    [
      0.496468,
      "f"
    ],
    [
      0.150514,
      "i"
    ],
    [
      0.195618,
      "r"
    ],
    [
      0.080266,
      "s"
    ],
    [
      0.095360,
      "t"
    ],
    [
      0.070348,
      " "
    ],
    [
      1.258630,
      "5"
    ],
    [
      0.090463,
      " "
    ],
    [
      0.210548,
      "d"
    ],
    [
      0.150505,
      "i"
    ],
    [
      0.180509,
      "g"
    ],
    [
      0.155468,
      "i"
    ],
    [
      0.215733,
      "t"
    ],
    [
      0.090407,
      "s"
    ],
    [
      0.566657,
      " "
    ],
    [
      0.275870,
      "a"
    ],
    [
      0.190667,
      "r"
    ],
    [
      0.070297,
      "e"
    ],
    [
      0.085255,
      " "
    ],
    [
      0.556607,
      "g"
    ],
    [
      0.245725,
      "o"
    ],
    [
      0.140565,
      "o"
    ],
    [
      0.110476,
      "d"
    ],
    [
      0.543845,
      " "
    ],
    [
      0.388909,
      "("
    ],
    [
      0.636826,
      "o"
    ],
    [
      0.070192,
      "r"
    ],
    [
      0.125136,
      " "
    ],
    [
      0.155775,
      "\""
    ],
    [
      0.406166,
      "s"
    ],
    [
      0.180648,
      "i"
    ],
    [
      0.917682,
      "g"
    ],
    [
      0.185630,
      "i"
    ],
    [
      1.669875,
      "\u0008\u001b[K"
    ],
    [
      0.240734,
      "n"
    ],
    [
      0.175553,
      "i"
    ],
    [
      0.531712,
      "\u0008\u001b[K"
    ],
    [
      0.125558,
      "\u0008\u001b[K"
    ],
    [
      0.180444,
      "\u0008\u001b[K"
    ],
    [
      0.952830,
      "g"
    ],
    [
      0.195641,
      "n"
    ],
    [
      0.190563,
      "i"
    ],
    [
      0.265842,
      "f"
    ],
    [
      0.205670,
      "i"
    ],
    [
      0.100365,
      "c"
    ],
    [
      0.210658,
      "a"
    ],
    [
      0.115388,
      "n"
    ],
    [
      0.185587,
      "t"
    ],
    [
      0.150507,
      "\""
    ],
    [
      1.667338,
      ")"
    ],
    [
      0.418945,
      "\r\n"
    ],
    [
      0.000101,
      "... "
    ],
    [
      0.538621,
      "#"
    ],
    [
      0.383462,
      " "
    ],
    [
      0.166110,
      "L"
    ],
    [
      0.240846,
      "e"
    ],
    [
      0.130328,
      "t"
    ],
    [
      0.190650,
      "'"
    ],
    [
      0.050182,
      "s"
    ],
    [
      0.119093,
      " "
    ],
    [
      0.220640,
      "r"
    ],
    [
      0.048871,
      "e"
    ],
    [
      0.128028,
      "d"
    ],
    [
      0.622087,
      "u"
    ],
    [
      0.120243,
      "c"
    ],
    [
      0.341072,
      "e"
    ],
    [
      0.165573,
      " "
    ],
    [
      0.145478,
      "t"
    ],
    [
      0.060551,
      "h"
    ],
    [
      0.015283,
      "e"
    ],
    [
      0.099818,
      " "
    ],
    [
      0.240705,
      "s"
    ],
    [
      0.150540,
      "t"
    ],
    [
      0.066592,
      "e"
    ],
    [
      0.184287,
      "p"
    ],
    [
      0.040313,
      " "
    ],
    [
      0.295687,
      "s"
    ],
    [
      0.326040,
      "i"
    ],
    [
      0.190563,
      "z"
    ],
    [
      0.034764,
      "e"
    ],
    [
      0.627343,
      ":"
    ],
    [
      0.832508,
      "\r\n"
    ],
    [
      0.000148,
      "... "
    ],
    [
      1.590122,
      "# Let's reduce the step size:"
    ],
    [
      0.366125,
      "\r\u001b[C\u001b[C\u001b[C\u001b[C\u001b[C\u001b[CThis is not bad, the first 5 digits are good (or \"significant\")"
    ],
    [
      0.371153,
      "\r\u001b[C\u001b[C\u001b[C\u001b[CFD(f, x, h=1e-4)\u001b[K"
    ],
    [
      0.869756,
      "\u0008"
    ],
    [
      0.298461,
      "\u0008\u001b[1P)\u0008"
    ],
    [
      0.280909,
      "8)\u0008"
    ],
    [
      1.466722,
      "\r\n"
    ],
    [
      0.000401,
      "0.99999999392252903\r\n"
    ],
    [
      0.000026,
      "\u003e\u003e\u003e "
    ],
    [
      1.217717,
      "#"
    ],
    [
      0.236169,
      " "
    ],
    [
      0.260859,
      "T"
    ],
    [
      0.150474,
      "h"
    ],
    [
      0.160519,
      "i"
    ],
    [
      0.068099,
      "s"
    ],
    [
      0.105430,
      " "
    ],
    [
      0.160279,
      "i"
    ],
    [
      0.047585,
      "s"
    ],
    [
      0.123128,
      " "
    ],
    [
      0.185481,
      "e"
    ],
    [
      0.192942,
      "v"
    ],
    [
      0.072919,
      "e"
    ],
    [
      0.115422,
      "n"
    ],
    [
      0.095264,
      " "
    ],
    [
      0.276081,
      "b"
    ],
    [
      0.080057,
      "e"
    ],
    [
      0.140452,
      "t"
    ],
    [
      0.140595,
      "t"
    ],
    [
      0.085326,
      "e"
    ],
    [
      0.100359,
      "r"
    ],
    [
      0.757280,
      ","
    ],
    [
      0.049920,
      " "
    ],
    [
      0.170707,
      "w"
    ],
    [
      0.190558,
      "e"
    ],
    [
      0.132866,
      " "
    ],
    [
      0.293382,
      "h"
    ],
    [
      0.050197,
      "a"
    ],
    [
      0.135488,
      "v"
    ],
    [
      0.080417,
      "e"
    ],
    [
      0.080129,
      " "
    ],
    [
      0.616570,
      "3"
    ],
    [
      0.321528,
      " "
    ],
    [
      0.095164,
      "e"
    ],
    [
      0.150435,
      "x"
    ],
    [
      0.131750,
      "t"
    ],
    [
      0.134190,
      "r"
    ],
    [
      0.070269,
      "a"
    ],
    [
      0.140395,
      " "
    ],
    [
      0.235741,
      "s"
    ],
    [
      0.150514,
      "i"
    ],
    [
      0.230677,
      "g"
    ],
    [
      0.897662,
      "n"
    ],
    [
      0.210642,
      "i"
    ],
    [
      0.265805,
      "f"
    ],
    [
      0.195657,
      "i"
    ],
    [
      0.060219,
      "c"
    ],
    [
      0.195607,
      "a"
    ],
    [
      0.090235,
      "n"
    ],
    [
      0.190687,
      "t"
    ],
    [
      0.050067,
      " "
    ],
    [
      0.245703,
      "d"
    ],
    [
      0.245868,
      "i"
    ],
    [
      0.235724,
      "g"
    ],
    [
      0.166588,
      "i"
    ],
    [
      0.234570,
      "t"
    ],
    [
      0.080291,
      "s"
    ],
    [
      0.977979,
      "."
    ],
    [
      0.356134,
      "\r\n"
    ],
    [
      0.000229,
      "... "
    ],
    [
      1.521243,
      "#"
    ],
    [
      0.233736,
      " "
    ],
    [
      0.180590,
      "C"
    ],
    [
      0.245720,
      "a"
    ],
    [
      0.125408,
      "n"
    ],
    [
      0.095468,
      " "
    ],
    [
      0.165427,
      "w"
    ],
    [
      0.200645,
      "e"
    ],
    [
      0.125410,
      " "
    ],
    [
      0.125327,
      "d"
    ],
    [
      0.115374,
      "o"
    ],
    [
      0.095579,
      " "
    ],
    [
      0.488631,
      "i"
    ],
    [
      0.163135,
      "t"
    ],
    [
      0.045100,
      " "
    ],
    [
      0.115388,
      "a"
    ],
    [
      0.140563,
      "g"
    ],
    [
      0.037266,
      "a"
    ],
    [
      0.153419,
      "i"
    ],
    [
      0.170617,
      "n"
    ],
    [
      1.805222,
      "?"
    ],
    [
      1.364109,
      "\r\n"
    ],
    [
      0.000098,
      "... "
    ],
    [
      2.146638,
      "# Can we do it again?"
    ],
    [
      0.170718,
      "\r\u001b[C\u001b[C\u001b[C\u001b[C\u001b[C\u001b[CThis is even better, we have 3 extra significant digits."
    ],
    [
      0.130284,
      "\r\u001b[C\u001b[C\u001b[C\u001b[CFD(f, x, h=1e-8)\u001b[K"
    ],
    [
      0.679305,
      "\u0008"
    ],
    [
      0.343552,
      "\u0008\u001b[1P)\u0008"
    ],
    [
      0.200538,
      "1)\u0008"
    ],
    [
      0.271134,
      "2)\u0008"
    ],
    [
      0.692152,
      "\r\n"
    ],
    [
      0.000300,
      "1.000088900582341\r\n"
    ],
    [
      0.000017,
      "\u003e\u003e\u003e "
    ],
    [
      0.887371,
      "T"
    ],
    [
      0.180313,
      "h"
    ],
    [
      0.205747,
      "i"
    ],
    [
      0.080393,
      "s"
    ],
    [
      0.105359,
      " "
    ],
    [
      0.150298,
      "i"
    ],
    [
      0.065411,
      "s"
    ],
    [
      0.110317,
      " "
    ],
    [
      0.496531,
      "\u0008\u001b[K"
    ],
    [
      0.090425,
      "\u0008\u001b[K"
    ],
    [
      0.105276,
      "\u0008\u001b[K"
    ],
    [
      0.110463,
      "\u0008\u001b[K"
    ],
    [
      0.110234,
      "\u0008\u001b[K"
    ],
    [
      0.110367,
      "\u0008\u001b[K"
    ],
    [
      0.120521,
      "\u0008\u001b[K"
    ],
    [
      0.115298,
      "\u0008\u001b[K"
    ],
    [
      0.360166,
      "#"
    ],
    [
      0.203768,
      " "
    ],
    [
      0.277282,
      "T"
    ],
    [
      0.130511,
      "h"
    ],
    [
      0.166982,
      "i"
    ],
    [
      0.065154,
      "s"
    ],
    [
      0.120565,
      " "
    ],
    [
      0.150256,
      "i"
    ],
    [
      0.060206,
      "s"
    ],
    [
      0.132860,
      " "
    ],
    [
      0.464073,
      "d"
    ],
    [
      0.160545,
      "i"
    ],
    [
      0.180576,
      "s"
    ],
    [
      0.090339,
      "a"
    ],
    [
      1.755183,
      "p"
    ],
    [
      0.165567,
      "p"
    ],
    [
      0.095249,
      "o"
    ],
    [
      0.215721,
      "i"
    ],
    [
      0.195702,
      "n"
    ],
    [
      0.205542,
      "t"
    ],
    [
      0.182918,
      "i"
    ],
    [
      0.108125,
      "n"
    ],
    [
      0.220609,
      "g"
    ],
    [
      1.113350,
      " "
    ],
    [
      0.170550,
      "."
    ],
    [
      0.175639,
      "."
    ],
    [
      0.200729,
      "."
    ],
    [
      0.341068,
      " "
    ],
    [
      0.054956,
      "w"
    ],
    [
      0.190794,
      "e"
    ],
    [
      0.110331,
      " "
    ],
    [
      0.150372,
      "a"
    ],
    [
      0.361289,
      "r"
    ],
    [
      0.100257,
      "e"
    ],
    [
      0.085473,
      " "
    ],
    [
      0.300886,
      "b"
    ],
    [
      0.050141,
      "a"
    ],
    [
      0.215662,
      "c"
    ],
    [
      0.150532,
      "k"
    ],
    [
      0.112683,
      " "
    ],
    [
      0.143213,
      "t"
    ],
    [
      0.215822,
      "o"
    ],
    [
      0.065068,
      " "
    ],
    [
      0.571776,
      "5"
    ],
    [
      0.107675,
      " "
    ],
    [
      0.200539,
      "s"
    ],
    [
      0.168364,
      "i"
    ],
    [
      0.255721,
      "g"
    ],
    [
      0.177901,
      "n"
    ],
    [
      0.200692,
      "i"
    ],
    [
      0.238376,
      "f"
    ],
    [
      0.155435,
      "i"
    ],
    [
      0.055257,
      "c"
    ],
    [
      0.175680,
      "a"
    ],
    [
      0.090200,
      "n"
    ],
    [
      0.187872,
      "t"
    ],
    [
      0.037064,
      " "
    ],
    [
      0.507332,
      "d"
    ],
    [
      0.180644,
      "i"
    ],
    [
      0.185465,
      "g"
    ],
    [
      0.160513,
      "i"
    ],
    [
      0.190888,
      "t"
    ],
    [
      0.055165,
      "s"
    ],
    [
      1.220659,
      "."
    ],
    [
      1.313713,
      "\r\n"
    ],
    [
      0.000060,
      "... "
    ],
    [
      1.153086,
      "\r\n"
    ],
    [
      0.000083,
      "\u003e\u003e\u003e "
    ],
    [
      0.993476,
      "#"
    ],
    [
      0.337978,
      " "
    ],
    [
      0.135266,
      "W"
    ],
    [
      0.150633,
      "h"
    ],
    [
      0.070403,
      "a"
    ],
    [
      0.135483,
      "t"
    ],
    [
      0.075274,
      " "
    ],
    [
      0.446276,
      "i"
    ],
    [
      0.055364,
      "s"
    ],
    [
      0.100302,
      " "
    ],
    [
      0.240616,
      "g"
    ],
    [
      0.195570,
      "o"
    ],
    [
      0.025171,
      "i"
    ],
    [
      0.230788,
      "j"
    ],
    [
      0.641916,
      "\u0008\u001b[K"
    ],
    [
      0.240761,
      "n"
    ],
    [
      0.220705,
      "g"
    ],
    [
      0.345994,
      " "
    ],
    [
      0.170563,
      "o"
    ],
    [
      0.145666,
      "n"
    ],
    [
      0.120238,
      " "
    ],
    [
      0.837396,
      "\u0008\u001b[K"
    ],
    [
      0.305845,
      "?"
    ],
    [
      0.702069,
      "\r\n"
    ],
    [
      0.000171,
      "... "
    ],
    [
      0.854739,
      "#"
    ],
    [
      0.245807,
      " "
    ],
    [
      0.270876,
      "C"
    ],
    [
      0.141379,
      "a"
    ],
    [
      0.062181,
      "n"
    ],
    [
      0.085355,
      " "
    ],
    [
      0.152688,
      "w"
    ],
    [
      0.218350,
      "e"
    ],
    [
      0.105294,
      " "
    ],
    [
      0.185662,
      "p"
    ],
    [
      0.250769,
      "r"
    ],
    [
      0.065255,
      "e"
    ],
    [
      0.055152,
      "d"
    ],
    [
      0.466465,
      "i"
    ],
    [
      0.090105,
      "c"
    ],
    [
      0.140659,
      "t"
    ],
    [
      0.080265,
      " "
    ],
    [
      0.290841,
      "t"
    ],
    [
      0.080257,
      "h"
    ],
    [
      0.060030,
      "e"
    ],
    [
      0.155598,
      " "
    ],
    [
      0.647070,
      "v"
    ],
    [
      0.055091,
      "a"
    ],
    [
      0.165543,
      "l"
    ],
    [
      0.050103,
      "u"
    ],
    [
      0.070368,
      "e"
    ],
    [
      0.105348,
      " "
    ],
    [
      0.215738,
      "o"
    ],
    [
      0.057485,
      "f"
    ],
    [
      0.128119,
      " "
    ],
    [
      0.130474,
      "t"
    ],
    [
      0.030750,
      "h"
    ],
    [
      0.591062,
      "e"
    ],
    [
      0.105456,
      " "
    ],
    [
      0.110365,
      "a"
    ],
    [
      0.110271,
      "c"
    ],
    [
      0.115445,
      "c"
    ],
    [
      0.541771,
      "u"
    ],
    [
      0.180341,
      "r"
    ],
    [
      0.080327,
      "a"
    ],
    [
      0.300836,
      "c"
    ],
    [
      0.556804,
      "y"
    ],
    [
      0.476415,
      "."
    ],
    [
      0.983017,
      "\u0008\u001b[K"
    ],
    [
      0.346063,
      "?"
    ],
    [
      1.038136,
      "\r\n"
    ],
    [
      0.000066,
      "... "
    ],
    [
      0.700604,
      "#"
    ],
    [
      0.194353,
      " "
    ],
    [
      0.268384,
      "F"
    ],
    [
      0.200776,
      "i"
    ],
    [
      0.170525,
      "n"
    ],
    [
      0.521698,
      "d"
    ],
    [
      0.070079,
      " "
    ],
    [
      0.173026,
      "t"
    ],
    [
      0.032448,
      "h"
    ],
    [
      0.040263,
      "e"
    ],
    [
      0.080166,
      " "
    ],
    [
      0.549060,
      "\""
    ],
    [
      0.228519,
      "o"
    ],
    [
      0.100296,
      "p"
    ],
    [
      0.210554,
      "t"
    ],
    [
      0.100494,
      "i"
    ],
    [
      0.120463,
      "m"
    ],
    [
      0.100286,
      "a"
    ],
    [
      0.115192,
      "l"
    ],
    [
      0.491494,
      "\""
    ],
    [
      0.298734,
      " "
    ],
    [
      0.333372,
      "s"
    ],
    [
      0.140382,
      "t"
    ],
    [
      0.055143,
      "e"
    ],
    [
      0.461696,
      "p"
    ],
    [
      0.180298,
      " "
    ],
    [
      0.120536,
      "s"
    ],
    [
      0.120380,
      "i"
    ],
    [
      0.160449,
      "z"
    ],
    [
      0.085373,
      "e"
    ],
    [
      0.701858,
      "?"
    ],
    [
      0.892781,
      "\r\n"
    ],
    [
      0.000222,
      "... "
    ],
    [
      0.608674,
      "#"
    ],
    [
      0.311262,
      " "
    ],
    [
      0.220697,
      "O"
    ],
    [
      0.210671,
      "r"
    ],
    [
      0.085260,
      " "
    ],
    [
      0.599490,
      "e"
    ],
    [
      0.135035,
      "v"
    ],
    [
      0.060272,
      "e"
    ],
    [
      0.105760,
      "n"
    ],
    [
      0.807379,
      ","
    ],
    [
      0.070115,
      " "
    ],
    [
      0.511687,
      "c"
    ],
    [
      0.080162,
      "a"
    ],
    [
      0.120583,
      "n"
    ],
    [
      0.075092,
      " "
    ],
    [
      0.278283,
      "w"
    ],
    [
      0.200644,
      "e"
    ],
    [
      0.123015,
      " "
    ],
    [
      0.240894,
      "f"
    ],
    [
      0.085375,
      "i"
    ],
    [
      0.165369,
      "n"
    ],
    [
      0.140407,
      "d"
    ],
    [
      0.270937,
      " "
    ],
    [
      0.100254,
      "a"
    ],
    [
      0.077709,
      " "
    ],
    [
      0.902517,
      "b"
    ],
    [
      0.062933,
      "e"
    ],
    [
      0.140490,
      "t"
    ],
    [
      0.115333,
      "t"
    ],
    [
      0.075537,
      "e"
    ],
    [
      0.095074,
      "r"
    ],
    [
      0.105412,
      " "
    ],
    [
      0.411213,
      "d"
    ],
    [
      0.135517,
      "i"
    ],
    [
      0.200556,
      "f"
    ],
    [
      0.130553,
      "f"
    ],
    [
      0.105287,
      "e"
    ],
    [
      0.581710,
      "r"
    ],
    [
      0.185744,
      "e"
    ],
    [
      0.184765,
      "n"
    ],
    [
      0.592582,
      "t"
    ],
    [
      0.250768,
      "i"
    ],
    [
      0.075373,
      "a"
    ],
    [
      0.145341,
      "t"
    ],
    [
      0.190680,
      "i"
    ],
    [
      0.029334,
      "o"
    ],
    [
      0.151063,
      "n"
    ],
    [
      0.047409,
      " "
    ],
    [
      0.163240,
      "s"
    ],
    [
      0.080372,
      "c"
    ],
    [
      0.235818,
      "h"
    ],
    [
      0.090167,
      "e"
    ],
    [
      0.401272,
      "m"
    ],
    [
      0.340996,
      "e"
    ],
    [
      0.777284,
      ","
    ],
    [
      0.235768,
      "\r\n"
    ],
    [
      0.000227,
      "... "
    ],
    [
      0.493301,
      "#"
    ],
    [
      0.506881,
      " "
    ],
    [
      0.888090,
      "m"
    ],
    [
      0.057559,
      "o"
    ],
    [
      0.042263,
      "r"
    ],
    [
      0.032734,
      "e"
    ],
    [
      0.175696,
      " "
    ],
    [
      0.215727,
      "a"
    ],
    [
      0.220583,
      "c"
    ],
    [
      0.125505,
      "c"
    ],
    [
      0.225692,
      "u"
    ],
    [
      0.207877,
      "r"
    ],
    [
      0.073052,
      "a"
    ],
    [
      0.110331,
      "t"
    ],
    [
      0.095192,
      "e"
    ],
    [
      0.401441,
      " "
    ],
    [
      0.125303,
      "a"
    ],
    [
      0.220860,
      "n"
    ],
    [
      0.077826,
      "d"
    ],
    [
      0.238315,
      " "
    ],
    [
      0.130216,
      "w"
    ],
    [
      0.175547,
      "i"
    ],
    [
      0.170582,
      "t"
    ],
    [
      0.065209,
      "h"
    ],
    [
      0.165590,
      " "
    ],
    [
      0.057677,
      "a"
    ],
    [
      0.428792,
      " "
    ],
    [
      0.273208,
      "m"
    ],
    [
      0.100562,
      "o"
    ],
    [
      0.313570,
      "r"
    ],
    [
      0.080367,
      "e"
    ],
    [
      0.230740,
      " "
    ],
    [
      1.258489,
      "p"
    ],
    [
      0.230638,
      "r"
    ],
    [
      0.060456,
      "e"
    ],
    [
      0.090198,
      "d"
    ],
    [
      0.571682,
      "i"
    ],
    [
      0.110240,
      "c"
    ],
    [
      0.636976,
      "t"
    ],
    [
      0.054468,
      "a"
    ],
    [
      0.126244,
      "b"
    ],
    [
      0.155333,
      "l"
    ],
    [
      0.054409,
      "e"
    ],
    [
      0.612752,
      " "
    ],
    [
      0.456215,
      "b"
    ],
    [
      0.065248,
      "e"
    ],
    [
      0.561708,
      "h"
    ],
    [
      0.069507,
      "a"
    ],
    [
      0.479724,
      "v"
    ],
    [
      0.243206,
      "i"
    ],
    [
      0.044412,
      "o"
    ],
    [
      0.041122,
      "r"
    ],
    [
      0.957685,
      "?"
    ],
    [
      0.762134,
      "\r\n"
    ],
    [
      0.000191,
      "... "
    ],
    [
      0.681756,
      "\r\n"
    ],
    [
      0.000188,
      "\u003e\u003e\u003e "
    ],
    [
      0.734583,
      "#"
    ],
    [
      0.275766,
      " "
    ],
    [
      0.278611,
      "T"
    ],
    [
      0.080278,
      "e"
    ],
    [
      0.150318,
      "s"
    ],
    [
      0.416358,
      "\u0008\u001b[K"
    ],
    [
      0.110233,
      "\u0008\u001b[K"
    ],
    [
      0.125563,
      "\u0008\u001b[K"
    ],
    [
      0.270910,
      "Y"
    ],
    [
      0.110381,
      "e"
    ],
    [
      0.120340,
      "s"
    ],
    [
      0.125587,
      " "
    ],
    [
      0.190566,
      "w"
    ],
    [
      0.185544,
      "e"
    ],
    [
      0.125591,
      " "
    ],
    [
      0.195543,
      "c"
    ],
    [
      0.065176,
      "a"
    ],
    [
      0.135336,
      "n"
    ],
    [
      0.085430,
      " "
    ],
    [
      1.098284,
      "\u0008\u001b[K"
    ],
    [
      0.275886,
      "!"
    ],
    [
      0.451225,
      " "
    ],
    [
      0.431382,
      ";"
    ],
    [
      0.887757,
      ")"
    ],
    [
      0.411067,
      "\r\n"
    ],
    [
      0.000172,
      "... "
    ],
    [
      1.402741,
      "#"
    ],
    [
      0.245839,
      " "
    ],
    [
      0.110641,
      "w"
    ],
    [
      0.327344,
      "e"
    ],
    [
      0.300872,
      "\u0008\u001b[K"
    ],
    [
      0.130646,
      "\u0008\u001b[K"
    ],
    [
      0.110324,
      "W"
    ],
    [
      0.175369,
      "e"
    ],
    [
      0.185618,
      " "
    ],
    [
      0.260757,
      "u"
    ],
    [
      0.070421,
      "s"
    ],
    [
      0.152637,
      "e"
    ],
    [
      0.228654,
      " "
    ],
    [
      0.536271,
      "C"
    ],
    [
      0.115461,
      "O"
    ],
    [
      0.155622,
      "m"
    ],
    [
      0.115327,
      "p"
    ],
    [
      0.125355,
      "l"
    ],
    [
      0.085509,
      "e"
    ],
    [
      0.290757,
      "\u0008\u001b[K"
    ],
    [
      0.075135,
      "\u0008\u001b[K"
    ],
    [
      0.105425,
      "\u0008\u001b[K"
    ],
    [
      0.105348,
      "\u0008\u001b[K"
    ],
    [
      0.657011,
      "\u0008\u001b[K"
    ],
    [
      0.230647,
      "o"
    ],
    [
      0.145447,
      "m"
    ],
    [
      0.137732,
      "p"
    ],
    [
      0.123067,
      "l"
    ],
    [
      0.070236,
      "e"
    ],
    [
      0.160456,
      "x"
    ],
    [
      0.451439,
      "-"
    ],
    [
      0.140374,
      "S"
    ],
    [
      0.085422,
      "T"
    ],
    [
      0.135273,
      "e"
    ],
    [
      0.075395,
      "p"
    ],
    [
      0.391111,
      "\u0008\u001b[K"
    ],
    [
      0.085381,
      "\u0008\u001b[K"
    ],
    [
      0.105165,
      "\u0008\u001b[K"
    ],
    [
      0.321015,
      "t"
    ],
    [
      0.075385,
      "e"
    ],
    [
      0.110264,
      "p"
    ],
    [
      0.616953,
      " "
    ],
    [
      0.270922,
      "D"
    ],
    [
      0.962865,
      "i"
    ],
    [
      0.210465,
      "f"
    ],
    [
      0.125567,
      "f"
    ],
    [
      0.130456,
      "e"
    ],
    [
      0.130318,
      "r"
    ],
    [
      0.055279,
      "e"
    ],
    [
      0.255669,
      "n"
    ],
    [
      0.436385,
      "t"
    ],
    [
      0.386316,
      "i"
    ],
    [
      0.070191,
      "a"
    ],
    [
      0.160428,
      "t"
    ],
    [
      0.200597,
      "i"
    ],
    [
      0.045268,
      "o"
    ],
    [
      0.160542,
      "n"
    ],
    [
      1.113309,
      ":"
    ],
    [
      0.837550,
      "\r\n"
    ],
    [
      0.000151,
      "... "
    ],
    [
      0.707014,
      "f"
    ],
    [
      0.060077,
      "r"
    ],
    [
      0.070442,
      "o"
    ],
    [
      0.034747,
      "m"
    ],
    [
      0.120561,
      " "
    ],
    [
      0.255896,
      "c"
    ],
    [
      0.050120,
      "s"
    ],
    [
      0.135377,
      "d"
    ],
    [
      0.080494,
      " "
    ],
    [
      0.467458,
      "i"
    ],
    [
      0.169412,
      "m"
    ],
    [
      0.130366,
      "p"
    ],
    [
      0.030249,
      "o"
    ],
    [
      0.310703,
      "r"
    ],
    [
      0.045286,
      "t"
    ],
    [
      0.110360,
      " "
    ],
    [
      0.326053,
      "C"
    ],
    [
      0.115263,
      "S"
    ],
    [
      0.105395,
      "D"
    ],
    [
      0.376304,
      "\r\n"
    ],
    [
      0.000471,
      "\u003e\u003e\u003e "
    ],
    [
      2.667575,
      "C"
    ],
    [
      0.130301,
      "S"
    ],
    [
      0.110407,
      "D"
    ],
    [
      0.702246,
      "("
    ],
    [
      0.672017,
      "f"
    ],
    [
      0.225769,
      ","
    ],
    [
      0.085133,
      " "
    ],
    [
      0.200700,
      "x"
    ],
    [
      0.712092,
      ","
    ],
    [
      0.060309,
      " "
    ],
    [
      0.646871,
      "h"
    ],
    [
      0.366091,
      "="
    ],
    [
      0.656898,
      "1"
    ],
    [
      0.326237,
      "e"
    ],
    [
      0.298177,
      "-"
    ],
    [
      0.238228,
      "4"
    ],
    [
      0.782484,
      ")"
    ],
    [
      0.927753,
      "\r\n"
    ],
    [
      0.000424,
      "0.99999999833333342\r\n"
    ],
    [
      0.000017,
      "\u003e\u003e\u003e "
    ],
    [
      3.152063,
      "#"
    ],
    [
      0.251300,
      " "
    ],
    [
      0.217181,
      "T"
    ],
    [
      0.140437,
      "h"
    ],
    [
      0.175445,
      "i"
    ],
    [
      0.065288,
      "s"
    ],
    [
      0.120389,
      " "
    ],
    [
      0.135417,
      "i"
    ],
    [
      0.055193,
      "s"
    ],
    [
      0.200744,
      " "
    ],
    [
      0.135271,
      "a"
    ],
    [
      0.110395,
      "l"
    ],
    [
      0.250749,
      "r"
    ],
    [
      0.029999,
      "e"
    ],
    [
      0.105534,
      "a"
    ],
    [
      0.040009,
      "d"
    ],
    [
      0.556745,
      "y"
    ],
    [
      0.045108,
      " "
    ],
    [
      0.952678,
      "b"
    ],
    [
      0.055284,
      "e"
    ],
    [
      0.145418,
      "t"
    ],
    [
      0.220582,
      "e"
    ],
    [
      0.100371,
      "r"
    ],
    [
      0.326037,
      "\u0008\u001b[K"
    ],
    [
      0.100274,
      "\u0008\u001b[K"
    ],
    [
      0.240812,
      "t"
    ],
    [
      0.090209,
      "e"
    ],
    [
      0.085436,
      "r"
    ],
    [
      0.165435,
      " "
    ],
    [
      0.381094,
      "t"
    ],
    [
      0.050200,
      "h"
    ],
    [
      0.105463,
      "a"
    ],
    [
      0.155339,
      "n"
    ],
    [
      0.160552,
      " "
    ],
    [
      0.476458,
      "F"
    ],
    [
      0.160709,
      "D"
    ],
    [
      1.670035,
      "\r\n"
    ],
    [
      0.000178,
      "... "
    ],
    [
      0.496910,
      "# This is already better than FD"
    ],
    [
      0.155551,
      "\r\u001b[C\u001b[C\u001b[C\u001b[C\u001b[15PCSD(f, x, h=1e-4)"
    ],
    [
      0.797380,
      "\u0008"
    ],
    [
      0.425941,
      "\u0008\u001b[1P)\u0008"
    ],
    [
      0.360834,
      "8)\u0008"
    ],
    [
      0.953259,
      "\r\n"
    ],
    [
      0.000378,
      "1.0\r\n"
    ],
    [
      0.000016,
      "\u003e\u003e\u003e "
    ],
    [
      1.696562,
      "#"
    ],
    [
      0.237408,
      " "
    ],
    [
      0.282262,
      "W"
    ],
    [
      0.341147,
      "o"
    ],
    [
      0.055076,
      "w"
    ],
    [
      0.842492,
      "!"
    ],
    [
      0.777481,
      "\r\n"
    ],
    [
      0.000208,
      "... "
    ],
    [
      1.093524,
      "# Wow!"
    ],
    [
      0.145476,
      "\r\u001b[C\u001b[C\u001b[C\u001b[CCSD(f, x, h=1e-8)"
    ],
    [
      0.752144,
      "\u0008"
    ],
    [
      0.277935,
      "\u0008\u001b[1P)\u0008"
    ],
    [
      0.228538,
      "1)\u0008"
    ],
    [
      0.205893,
      "2)\u0008"
    ],
    [
      0.646800,
      "\r\n"
    ],
    [
      0.000366,
      "1.0\r\n"
    ],
    [
      0.000017,
      "\u003e\u003e\u003e "
    ],
    [
      0.737236,
      "CSD(f, x, h=1e-12)"
    ],
    [
      0.155568,
      "\r\u001b[C\u001b[C\u001b[C\u001b[C\u001b[12P# Wow!"
    ],
    [
      0.571175,
      "\u0008\u001b[K"
    ],
    [
      0.090453,
      "\u0008\u001b[K"
    ],
    [
      0.100313,
      "\u0008\u001b[K"
    ],
    [
      0.110444,
      "\u0008\u001b[K"
    ],
    [
      0.376248,
      "O"
    ],
    [
      0.070285,
      "M"
    ],
    [
      0.240832,
      "G"
    ],
    [
      0.817679,
      "!"
    ],
    [
      0.733919,
      "\r\n"
    ],
    [
      0.000076,
      "... "
    ],
    [
      0.793195,
      "# OMG!"
    ],
    [
      0.137706,
      "\r\u001b[C\u001b[C\u001b[C\u001b[CCSD(f, x, h=1e-12)"
    ],
    [
      0.108118,
      "\r\u001b[C\u001b[C\u001b[C\u001b[C\u001b[12P# Wow!"
    ],
    [
      0.120233,
      "\r\u001b[C\u001b[C\u001b[C\u001b[CCSD(f, x, h=1e-8)"
    ],
    [
      0.501491,
      "\u0008"
    ],
    [
      0.355802,
      "\u0008\u001b[1P)\u0008"
    ],
    [
      0.217983,
      "1)\u0008"
    ],
    [
      0.186284,
      "0)\u0008"
    ],
    [
      0.120508,
      "0)\u0008"
    ],
    [
      0.772171,
      "\r\n"
    ],
    [
      0.000369,
      "1.0\r\n"
    ],
    [
      0.000017,
      "\u003e\u003e\u003e "
    ],
    [
      1.476489,
      "#"
    ],
    [
      1.323972,
      " "
    ],
    [
      0.553058,
      "!"
    ],
    [
      0.501566,
      "!"
    ],
    [
      0.031470,
      "!"
    ],
    [
      0.032487,
      "!"
    ],
    [
      0.031124,
      "!"
    ],
    [
      0.030563,
      "!"
    ],
    [
      0.031041,
      "!"
    ],
    [
      0.031691,
      "!"
    ],
    [
      0.030028,
      "!"
    ],
    [
      0.031109,
      "!"
    ],
    [
      0.030886,
      "!"
    ],
    [
      0.031146,
      "!"
    ],
    [
      0.030669,
      "!"
    ],
    [
      0.031120,
      "!"
    ],
    [
      0.030999,
      "!"
    ],
    [
      0.030880,
      "!"
    ],
    [
      0.031027,
      "!"
    ],
    [
      0.030913,
      "!"
    ],
    [
      0.031190,
      "!"
    ],
    [
      0.030885,
      "!"
    ],
    [
      0.031081,
      "!"
    ],
    [
      0.030546,
      "!"
    ],
    [
      0.029934,
      "!"
    ],
    [
      0.029595,
      "!"
    ],
    [
      0.032383,
      "!"
    ],
    [
      0.030710,
      "!"
    ],
    [
      0.031129,
      "!"
    ],
    [
      0.031091,
      "!"
    ],
    [
      0.031106,
      "!"
    ],
    [
      0.030176,
      "!"
    ],
    [
      0.031069,
      "!"
    ],
    [
      0.030590,
      "!"
    ],
    [
      0.031125,
      "!"
    ],
    [
      0.031018,
      "!"
    ],
    [
      0.030689,
      "!"
    ],
    [
      0.030421,
      "!"
    ],
    [
      0.409049,
      "\r\n"
    ],
    [
      0.000168,
      "... "
    ],
    [
      1.523794,
      "#"
    ],
    [
      0.371447,
      "\r\n"
    ],
    [
      0.000168,
      "... "
    ],
    [
      1.096236,
      "#"
    ],
    [
      0.182919,
      " "
    ],
    [
      0.220695,
      "T"
    ],
    [
      0.180501,
      "o"
    ],
    [
      0.070261,
      " "
    ],
    [
      0.799695,
      "l"
    ],
    [
      0.098193,
      "e"
    ],
    [
      0.075273,
      "a"
    ],
    [
      0.205568,
      "r"
    ],
    [
      0.541604,
      "n"
    ],
    [
      0.100357,
      " "
    ],
    [
      0.321068,
      "m"
    ],
    [
      0.030654,
      "o"
    ],
    [
      0.079738,
      "r"
    ],
    [
      0.055089,
      "e"
    ],
    [
      0.165609,
      " "
    ],
    [
      0.320935,
      "a"
    ],
    [
      0.145492,
      "b"
    ],
    [
      0.190609,
      "o"
    ],
    [
      0.030903,
      "u"
    ],
    [
      0.219868,
      "t"
    ],
    [
      0.065258,
      " "
    ],
    [
      0.280923,
      "C"
    ],
    [
      0.180716,
      "I"
    ],
    [
      0.180401,
      "m"
    ],
    [
      0.140590,
      "p"
    ],
    [
      0.230642,
      "\u0008\u001b[K"
    ],
    [
      0.105366,
      "\u0008\u001b[K"
    ],
    [
      0.180498,
      "\u0008\u001b[K"
    ],
    [
      0.270815,
      "o"
    ],
    [
      0.155499,
      "m"
    ],
    [
      0.130462,
      "p"
    ],
    [
      0.120431,
      "l"
    ],
    [
      0.065152,
      "e"
    ],
    [
      0.165567,
      "x"
    ],
    [
      0.431328,
      "-"
    ],
    [
      0.140341,
      "S"
    ],
    [
      0.115664,
      "t"
    ],
    [
      0.105180,
      "e"
    ],
    [
      0.105348,
      "p"
    ],
    [
      0.596814,
      " "
    ],
    [
      0.290989,
      "D"
    ],
    [
      0.100327,
      "i"
    ],
    [
      0.198804,
      "f"
    ],
    [
      0.137426,
      "f"
    ],
    [
      0.030520,
      "e"
    ],
    [
      0.164979,
      "e"
    ],
    [
      0.155550,
      "r"
    ],
    [
      0.426428,
      "\u0008\u001b[K"
    ],
    [
      0.110379,
      "\u0008\u001b[K"
    ],
    [
      0.140390,
      "r"
    ],
    [
      0.045243,
      "e"
    ],
    [
      0.140296,
      "n"
    ],
    [
      0.533905,
      "t"
    ],
    [
      0.373835,
      "i"
    ],
    [
      0.070326,
      "a"
    ],
    [
      0.140484,
      "t"
    ],
    [
      0.175470,
      "i"
    ],
    [
      0.034861,
      "o"
    ],
    [
      0.155894,
      "n"
    ],
    [
      0.832447,
      ","
    ],
    [
      0.222989,
      "\r\n"
    ],
    [
      0.000133,
      "... "
    ],
    [
      0.500986,
      "#"
    ],
    [
      0.707419,
      " "
    ],
    [
      0.308227,
      "v"
    ],
    [
      0.195765,
      "i"
    ],
    [
      0.100150,
      "s"
    ],
    [
      0.065422,
      "i"
    ],
    [
      0.621832,
      "t"
    ],
    [
      0.165995,
      " "
    ],
    [
      0.210586,
      "\u003c"
    ],
    [
      0.516620,
      "h"
    ],
    [
      0.330928,
      "t"
    ],
    [
      0.125442,
      "t"
    ],
    [
      0.586764,
      "p"
    ],
    [
      0.334575,
      ":"
    ],
    [
      0.407714,
      "/"
    ],
    [
      0.175596,
      "/"
    ],
    [
      0.290942,
      "e"
    ],
    [
      0.160668,
      "u"
    ],
    [
      0.150491,
      "l"
    ],
    [
      0.421445,
      "."
    ],
    [
      0.491257,
      "i"
    ],
    [
      0.200811,
      "n"
    ],
    [
      0.175668,
      "k"
    ],
    [
      0.842430,
      "/"
    ],
    [
      0.305833,
      "c"
    ],
    [
      0.080225,
      "o"
    ],
    [
      0.140476,
      "m"
    ],
    [
      0.165665,
      "p"
    ],
    [
      0.084920,
      "l"
    ],
    [
      0.155729,
      "e"
    ],
    [
      0.175567,
      "x"
    ],
    [
      1.017930,
      "-"
    ],
    [
      0.075587,
      "a"
    ],
    [
      0.180465,
      "b"
    ],
    [
      0.034806,
      "a"
    ],
    [
      0.416559,
      "\u0008\u001b[K"
    ],
    [
      0.115369,
      "\u0008\u001b[K"
    ],
    [
      0.250794,
      "n"
    ],
    [
      0.060315,
      "a"
    ],
    [
      0.155595,
      "l"
    ],
    [
      0.521362,
      "y"
    ],
    [
      0.090309,
      "s"
    ],
    [
      0.140546,
      "u"
    ],
    [
      0.060148,
      "s"
    ],
    [
      0.426444,
      "\u0008\u001b[K"
    ],
    [
      0.090252,
      "\u0008\u001b[K"
    ],
    [
      0.285888,
      "i"
    ],
    [
      0.095406,
      "s"
    ],
    [
      0.661909,
      "\u003e"
    ],
    [
      0.677050,
      "."
    ],
    [
      0.546753,
      "\r\n"
    ],
    [
      0.000118,
      "... "
    ]
  ]
}
